[gd_scene load_steps=6 format=2]

[ext_resource path="res://Scripts/Door.gd" type="Script" id=1]
[ext_resource path="res://Assets/Buildings expansion/Tiles/doorOpen.png" type="Texture" id=2]
[ext_resource path="res://Assets/Buildings expansion/Tiles/doorOpenTop.png" type="Texture" id=3]
[ext_resource path="res://Assets/Base pack/Tiles/boxItem.png" type="Texture" id=4]

[sub_resource type="RectangleShape2D" id=1]
extents = Vector2( 36.2192, 55.1651 )

[node name="Door" type="Area2D"]
position = Vector2( 167.995, 34.0735 )
script = ExtResource( 1 )

[node name="Door" type="Sprite" parent="."]
position = Vector2( 0.124084, 0.526306 )
texture = ExtResource( 2 )

[node name="Door2" type="Sprite" parent="."]
position = Vector2( 0.171021, -68.3423 )
texture = ExtResource( 3 )

[node name="CollisionShape2D" type="CollisionShape2D" parent="."]
position = Vector2( 0.416168, -18.3853 )
shape = SubResource( 1 )

[node name="PopupSign" type="Node2D" parent="."]

[node name="Alert" type="Sprite" parent="PopupSign"]
position = Vector2( 0.511154, -99.3318 )
scale = Vector2( 0.673843, 0.673843 )
texture = ExtResource( 4 )
[connection signal="body_entered" from="." to="." method="_on_Door_body_entered"]
[connection signal="body_exited" from="." to="." method="_on_Door_body_exited"]
