[gd_scene load_steps=7 format=2]

[ext_resource path="res://Scripts/Enemy.gd" type="Script" id=1]
[ext_resource path="res://Assets/Base pack/Items/cloud1.png" type="Texture" id=2]
[ext_resource path="res://Assets/Base pack/Items/cloud2.png" type="Texture" id=3]
[ext_resource path="res://Assets/Base pack/Items/cloud3.png" type="Texture" id=4]

[sub_resource type="SpriteFrames" id=1]
animations = [ {
"frames": [ ExtResource( 2 ), ExtResource( 3 ), ExtResource( 4 ) ],
"loop": true,
"name": "run",
"speed": 3.0
} ]

[sub_resource type="RectangleShape2D" id=2]
extents = Vector2( 57.4965, 36.1143 )

[node name="Ride" type="KinematicBody2D"]
script = ExtResource( 1 )

[node name="Sprite" type="AnimatedSprite" parent="."]
position = Vector2( 14.5969, 25.8905 )
rotation = 3.14159
scale = Vector2( 0.838763, -0.898724 )
frames = SubResource( 1 )
animation = "run"
frame = 2
playing = true

[node name="CollisionShape2D" type="CollisionShape2D" parent="."]
position = Vector2( 14.7454, 27.3721 )
shape = SubResource( 2 )

[node name="RayCast2D" type="RayCast2D" parent="."]
position = Vector2( 67.9756, 31.7736 )
rotation = 3.14159
scale = Vector2( 1, -1 )
enabled = true
